%YAML 1.1
%TAG !u! tag:unity3d.com,2011:
--- !u!1045 &1
EditorBuildSettings:
  m_ObjectHideFlags: 0
  serializedVersion: 2
  m_Scenes:
  - enabled: 1
    path: Assets/Scenes/startscreen.unity
    guid: b06ed6a2c8b1e384baa783aad7d55c7e
  - enabled: 1
    path: Assets/Scenes/level1.unity
    guid: 24d13f3bcf1f9ac499ad5c8c2b1bccb5
  - enabled: 1
    path: Assets/Scenes/level2.unity
    guid: 48df1e0305412ae4ebc3a08046f87413
  - enabled: 1
    path: Assets/Scenes/finalScreen.unity
    guid: 8073a2a29ca492b4ea35933bc07fa72c
  m_configObjects: {}
