%YAML 1.1
%TAG !u! tag:unity3d.com,2011:
--- !u!1 &5040874155407391852
GameObject:
  m_ObjectHideFlags: 0
  m_CorrespondingSourceObject: {fileID: 0}
  m_PrefabInstance: {fileID: 0}
  m_PrefabAsset: {fileID: 0}
  serializedVersion: 6
  m_Component:
  - component: {fileID: 5040874155407391855}
  - component: {fileID: 5040874155407391854}
  m_Layer: 5
  m_Name: gameLogic
  m_TagString: Untagged
  m_Icon: {fileID: 0}
  m_NavMeshLayer: 0
  m_StaticEditorFlags: 0
  m_IsActive: 1
--- !u!224 &5040874155407391855
RectTransform:
  m_ObjectHideFlags: 0
  m_CorrespondingSourceObject: {fileID: 0}
  m_PrefabInstance: {fileID: 0}
  m_PrefabAsset: {fileID: 0}
  m_GameObject: {fileID: 5040874155407391852}
  m_LocalRotation: {x: -0, y: -0, z: -0, w: 1}
  m_LocalPosition: {x: 0, y: 0, z: 0}
  m_LocalScale: {x: 1, y: 1, z: 1}
  m_Children: []
  m_Father: {fileID: 0}
  m_RootOrder: 0
  m_LocalEulerAnglesHint: {x: 0, y: 0, z: 0}
  m_AnchorMin: {x: 0.5, y: 0.5}
  m_AnchorMax: {x: 0.5, y: 0.5}
  m_AnchoredPosition: {x: 692.5, y: 327.5}
  m_SizeDelta: {x: 100, y: 100}
  m_Pivot: {x: 0.5, y: 0.5}
--- !u!114 &5040874155407391854
MonoBehaviour:
  m_ObjectHideFlags: 0
  m_CorrespondingSourceObject: {fileID: 0}
  m_PrefabInstance: {fileID: 0}
  m_PrefabAsset: {fileID: 0}
  m_GameObject: {fileID: 5040874155407391852}
  m_Enabled: 1
  m_EditorHideFlags: 0
  m_Script: {fileID: 11500000, guid: 7d8708b29c30698489c4ce68225a4c1a, type: 3}
  m_Name: 
  m_EditorClassIdentifier: 
  pistolReal: {fileID: 0}
  pistolFake: {fileID: 0}
  pistolImage: {fileID: 0}
  laptopFake: {fileID: 0}
  laptopImage: {fileID: 0}
  laptopPlacedFake: {fileID: 0}
  laptopPlacedReal: {fileID: 0}
  shotgunFake: {fileID: 0}
  shotgunReal: {fileID: 0}
  shotgunImage: {fileID: 0}
  tabletImage: {fileID: 0}
  textWeaponPickup: {fileID: 0}
  laptopPlaced: 0
  twoWeapons: 0
